INDEX VERSION 1.3+/Users/timfrazer/Documents/Git/netsuite-deprecated/SuiteScripts/.metadata/.plugins/org.eclipse.wst.jsdt.core/indexes
1040099351.index
586253132.index
1532647323.index
22446476.index
1756353551.index
2092829031.index
2712438973.index
2781921667.index
