<?xml version="1.0" encoding="UTF-8"?>
<session version="1.0">
<refactoring comment="Delete resource &apos;RemoteSystemsTempFiles&apos;" deleteContents="false" description="Delete resource &apos;RemoteSystemsTempFiles&apos;" element1="/RemoteSystemsTempFiles" flags="7" id="org.eclipse.ltk.core.refactoring.delete.resources" resources="1" stamp="1487972188752"/>
</session>